            // course1.CourseParticipates = new CourseParticipate(){
            //     CourseID = course1.CourseID,
            //     ParticipateID = participate1.ParticipateID
            // });
            
            // course1.CourseParticipates.Add(new CourseParticipate(){
            //     CourseID = course1.CourseID,
            //     ParticipateID = participate2.ParticipateID
            // });

            // course1.CourseParticipates.Add(new CourseParticipate(){
            //     CourseID = course1.CourseID,
            //     ParticipateID = participate3.ParticipateID
            // });

            // course2.CourseParticipates.Add(new CourseParticipate(){
            //     CourseID = course2.CourseID,
            //     ParticipateID = participate4.ParticipateID
            // });
            
            // course2.CourseParticipates.Add(new CourseParticipate(){
            //     CourseID = course2.CourseID,
            //     ParticipateID = participate5.ParticipateID
            // });

            // course2.CourseParticipates.Add(new CourseParticipate(){
            //     CourseID = course2.CourseID,
            //     ParticipateID = participate6.ParticipateID
            // });



            // participate1.CourseParticipates.Add(new CourseParticipate(){
            //     CourseID = course1.CourseID,
            //     ParticipateID = participate1.ParticipateID
            // });

            // participate2.CourseParticipates.Add(new CourseParticipate(){
            //     CourseID = course1.CourseID,
            //     ParticipateID = participate2.ParticipateID
            // });

            // participate3.CourseParticipates.Add(new CourseParticipate(){
            //     CourseID = course1.CourseID,
            //     ParticipateID = participate3.ParticipateID
            // });

            // participate4.CourseParticipates.Add(new CourseParticipate(){
            //     CourseID = course2.CourseID,
            //     ParticipateID = participate4.ParticipateID
            // });

            // participate5.CourseParticipates.Add(new CourseParticipate(){
            //     CourseID = course2.CourseID,
            //     ParticipateID = participate5.ParticipateID
            // });

            // participate6.CourseParticipates.Add(new CourseParticipate(){
            //     CourseID = course2.CourseID,
            //     ParticipateID = participate6.ParticipateID
            // });



            // var courseParticipate1 = new CourseParticipate()
            // {
            //     CourseID = course1.CourseID,
            //     ParticipateID = participate1.ParticipateID
            // };
            
            // var courseParticipate2 = new CourseParticipate()
            // {
            //     CourseID = course1.CourseID,
            //     ParticipateID = participate2.ParticipateID
            // };            
            
            // var courseParticipate3 = new CourseParticipate()
            // {
            //     CourseID = course1.CourseID,
            //     ParticipateID = participate3.ParticipateID
            // };

            // var courseParticipate4 = new CourseParticipate()
            // {
            //     CourseID = course2.CourseID,
            //     ParticipateID = participate4.ParticipateID
            // };

            // var courseParticipate5 = new CourseParticipate()
            // {
            //     CourseID = course2.CourseID,
            //     ParticipateID = participate5.ParticipateID
            // };

            // var courseParticipate6 = new CourseParticipate()
            // {
            //     CourseID = course2.CourseID,
            //     ParticipateID = participate6.ParticipateID
            // };

                // courseParticipate1,
                // courseParticipate2,
                // courseParticipate3,
                // courseParticipate4,
                // courseParticipate5,
                // courseParticipate6,


            // var participate1 = new Participate(){
            //     Name = "Andrzej",
            //     Email = "andrzejek@gmail.com",
            //     Status = "Waiting",
            //     CourseParticipates = new List<CourseParticipate>()
            // };
            
            // var participate2 = new Participate(){
            //     Name = "Damian",
            //     Email = "damianek@gmail.com",
            //     Status = "Confirmed",
            //     CourseParticipates = new List<CourseParticipate>()
            // };
            
            // var participate3 = new Participate(){
            //     Name = "WhitePowerPureEuropeAtAll",
            //     Email = "niedorozwoj.umyslowy@gmail.com",
            //     Status = "Rejected",
            //     CourseParticipates = new List<CourseParticipate>()
            // };
            
            // var participate4 = new Participate(){
            //     Name = "Anna",
            //     Email = "ania@gmail.com",
            //     Status = "Waiting",
            //     CourseParticipates = new List<CourseParticipate>()
            // };
            
            // var participate5 = new Participate(){
            //     Name = "Katarzyna",
            //     Email = "kasia@gmail.com",
            //     Status = "Confirmed",
            //     CourseParticipates = new List<CourseParticipate>()
            // };

            // var participate6 = new Participate(){
            //     Name = "SamSobieZróbKanapkę!",
            //     Email = "femile.domination.movement@gmail.com",
            //     Status = "Rejected",
            //     CourseParticipates = new List<CourseParticipate>()
            // };

            
            // var course1 = new Course(){
            //     Subject = "Depresja",
            //     Description = "Sznur i sucha gałąź czeka!",
            //     StartingDate = new DateTime(2018,7,10),
            //     CourseParticipates = new List<CourseParticipate>()
            // };
        
            // var course2 =  new Course(){
            //     Subject = "Anoreksja",
            //     Description = "Gdy lekko przesadzisz z djetą...",
            //     StartingDate = new DateTime(2019,5,7),
            //     CourseParticipates = new List<CourseParticipate>()
            // };